{
    "medical-appointment":[
        {
            "nombre":"Imanol Rivera",
            "fecha":"24/05/2022",
            "hora":"10:30",
            "imc":"24",
            "especialidad":"Odontología",
            "sintomas":"Dolor molar"
        },
        {
            "nombre":"Monica Romero",
            "fecha":"23/05/2022",
            "hora":"11:30",
            "imc":"22",
            "especialidad":"Medicina General",
            "sintomas":"Consulta control"
        }
    ]
}